module gitlab.com/yokoux90/metrics-client

go 1.16

require github.com/shirou/gopsutil/v3 v3.21.7

require (
	github.com/go-ole/go-ole v1.3.0 // indirect
	github.com/lufia/plan9stats v0.0.0-20231016141302-07b5767bb0ed // indirect
	github.com/power-devops/perfstat v0.0.0-20221212215047-62379fc7944b // indirect
	github.com/shoenig/go-m1cpu v0.1.6 // indirect
	github.com/tklauser/go-sysconf v0.3.12 // indirect
	github.com/tklauser/numcpus v0.6.1 // indirect
	github.com/yusufpapurcu/wmi v1.2.3 // indirect
	golang.org/x/sys v0.13.0 // indirect
)
